{
  "tracks": {
    "href": "https://api.spotify.com/v1/search?query=track%3A+I+Will+Wait&type=track&locale=en-US%2Cen%3Bq%3D0.9&offset=0&limit=2",
    "items": [
      {
        "album": {
          "album_type": "album",
          "artists": [
            {
              "external_urls": {
                "spotify": "https://open.spotify.com/artist/3gd8FJtBJtkRxdfbTu19U2"
              },
              "href": "https://api.spotify.com/v1/artists/3gd8FJtBJtkRxdfbTu19U2",
              "id": "3gd8FJtBJtkRxdfbTu19U2",
              "name": "Mumford & Sons",
              "type": "artist",
              "uri": "spotify:artist:3gd8FJtBJtkRxdfbTu19U2"
            }
          ],
          "available_markets": [
            "CA",
            "US"
          ],
          "external_urls": {
            "spotify": "https://open.spotify.com/album/3FfuUD3Je9t9tQq80Zq41y"
          },
          "href": "https://api.spotify.com/v1/albums/3FfuUD3Je9t9tQq80Zq41y",
          "id": "3FfuUD3Je9t9tQq80Zq41y",
          "images": [
            {
              "height": 640,
              "url": "https://i.scdn.co/image/ab67616d0000b2736e2407383e952808a0602b0d",
              "width": 640
            },
            {
              "height": 300,
              "url": "https://i.scdn.co/image/ab67616d00001e026e2407383e952808a0602b0d",
              "width": 300
            },
            {
              "height": 64,
              "url": "https://i.scdn.co/image/ab67616d000048516e2407383e952808a0602b0d",
              "width": 64
            }
          ],
          "name": "Babel (Deluxe Version)",
          "release_date": "2012-09-25",
          "release_date_precision": "day",
          "total_tracks": 15,
          "type": "album",
          "uri": "spotify:album:3FfuUD3Je9t9tQq80Zq41y"
        },
        "artists": [
          {
            "external_urls": {
              "spotify": "https://open.spotify.com/artist/3gd8FJtBJtkRxdfbTu19U2"
            },
            "href": "https://api.spotify.com/v1/artists/3gd8FJtBJtkRxdfbTu19U2",
            "id": "3gd8FJtBJtkRxdfbTu19U2",
            "name": "Mumford & Sons",
            "type": "artist",
            "uri": "spotify:artist:3gd8FJtBJtkRxdfbTu19U2"
          }
        ],
        "available_markets": [
          "CA",
          "US"
        ],
        "disc_number": 1,
        "duration_ms": 276720,
        "explicit": false,
        "external_ids": {
          "isrc": "GBUM71204769"
        },
        "external_urls": {
          "spotify": "https://open.spotify.com/track/1fXiYSWmkKJfRKMegCkI11"
        },
        "href": "https://api.spotify.com/v1/tracks/1fXiYSWmkKJfRKMegCkI11",
        "id": "1fXiYSWmkKJfRKMegCkI11",
        "is_local": false,
        "name": "I Will Wait",
        "popularity": 71,
        "preview_url": "https://p.scdn.co/mp3-preview/4d2f72a69bc3619e6e854912fd1275b6efbcc10c?cid=8199ced0f4aa4ceba1efbcedd7b6878a",
        "track_number": 3,
        "type": "track",
        "uri": "spotify:track:1fXiYSWmkKJfRKMegCkI11"
      },
      {
        "album": {
          "album_type": "single",
          "artists": [
            {
              "external_urls": {
                "spotify": "https://open.spotify.com/artist/7dq8KEwf0kQXJhM79iwcPh"
              },
              "href": "https://api.spotify.com/v1/artists/7dq8KEwf0kQXJhM79iwcPh",
              "id": "7dq8KEwf0kQXJhM79iwcPh",
              "name": "JJ Heller",
              "type": "artist",
              "uri": "spotify:artist:7dq8KEwf0kQXJhM79iwcPh"
            }
          ],
          "available_markets": [
            "AR",
            "AU",
            "AT",
            "BE",
            "BO",
            "BR",
            "BG",
            "CA",
            "CL",
            "CO",
            "CR",
            "CY",
            "CZ",
            "DK",
            "DO",
            "DE",
            "EC",
            "EE",
            "SV",
            "FI",
            "FR",
            "GR",
            "GT",
            "HN",
            "HK",
            "HU",
            "IS",
            "IE",
            "IT",
            "LV",
            "LT",
            "LU",
            "MY",
            "MT",
            "MX",
            "NL",
            "NZ",
            "NI",
            "NO",
            "PA",
            "PY",
            "PE",
            "PH",
            "PL",
            "PT",
            "SG",
            "SK",
            "ES",
            "SE",
            "CH",
            "TW",
            "TR",
            "UY",
            "US",
            "GB",
            "AD",
            "LI",
            "MC",
            "ID",
            "JP",
            "TH",
            "VN",
            "RO",
            "IL",
            "ZA",
            "SA",
            "AE",
            "BH",
            "QA",
            "OM",
            "KW",
            "EG",
            "MA",
            "DZ",
            "TN",
            "LB",
            "JO",
            "PS",
            "IN",
            "KZ",
            "MD",
            "UA",
            "AL",
            "BA",
            "HR",
            "ME",
            "MK",
            "SI",
            "KR",
            "BD",
            "PK",
            "LK",
            "GH",
            "KE",
            "NG",
            "TZ",
            "UG",
            "AG",
            "AM",
            "BS",
            "BB",
            "BZ",
            "BT",
            "BW",
            "BF",
            "CV",
            "CW",
            "DM",
            "FJ",
            "GM",
            "GE",
            "GD",
            "GW",
            "GY",
            "HT",
            "JM",
            "KI",
            "LS",
            "LR",
            "MW",
            "MV",
            "ML",
            "MH",
            "FM",
            "NA",
            "NR",
            "NE",
            "PW",
            "PG",
            "WS",
            "SM",
            "ST",
            "SN",
            "SC",
            "SL",
            "SB",
            "KN",
            "LC",
            "VC",
            "SR",
            "TL",
            "TO",
            "TT",
            "TV",
            "VU",
            "AZ",
            "BN",
            "KH",
            "CM",
            "TD",
            "KM",
            "GQ",
            "SZ",
            "GA",
            "GN",
            "KG",
            "LA",
            "MO",
            "MR",
            "MN",
            "NP",
            "RW",
            "TG",
            "UZ",
            "BJ",
            "MG",
            "MU",
            "MZ",
            "AO",
            "DJ",
            "ZM",
            "CG",
            "TJ",
            "VE",
            "ET"
          ],
          "external_urls": {
            "spotify": "https://open.spotify.com/album/7DrWjwgmmTZPGdQxfP8qi6"
          },
          "href": "https://api.spotify.com/v1/albums/7DrWjwgmmTZPGdQxfP8qi6",
          "id": "7DrWjwgmmTZPGdQxfP8qi6",
          "images": [
            {
              "height": 640,
              "url": "https://i.scdn.co/image/ab67616d0000b273876ede7587b22a77284ae7a5",
              "width": 640
            },
            {
              "height": 300,
              "url": "https://i.scdn.co/image/ab67616d00001e02876ede7587b22a77284ae7a5",
              "width": 300
            },
            {
              "height": 64,
              "url": "https://i.scdn.co/image/ab67616d00004851876ede7587b22a77284ae7a5",
              "width": 64
            }
          ],
          "name": "A Mother Like You",
          "release_date": "2019-05-03",
          "release_date_precision": "day",
          "total_tracks": 1,
          "type": "album",
          "uri": "spotify:album:7DrWjwgmmTZPGdQxfP8qi6"
        },
        "artists": [
          {
            "external_urls": {
              "spotify": "https://open.spotify.com/artist/7dq8KEwf0kQXJhM79iwcPh"
            },
            "href": "https://api.spotify.com/v1/artists/7dq8KEwf0kQXJhM79iwcPh",
            "id": "7dq8KEwf0kQXJhM79iwcPh",
            "name": "JJ Heller",
            "type": "artist",
            "uri": "spotify:artist:7dq8KEwf0kQXJhM79iwcPh"
          }
        ],
        "available_markets": [
          "AR",
          "AU",
          "AT",
          "BE",
          "BO",
          "BR",
          "BG",
          "CA",
          "CL",
          "CO",
          "CR",
          "CY",
          "CZ",
          "DK",
          "DO",
          "DE",
          "EC",
          "EE",
          "SV",
          "FI",
          "FR",
          "GR",
          "GT",
          "HN",
          "HK",
          "HU",
          "IS",
          "IE",
          "IT",
          "LV",
          "LT",
          "LU",
          "MY",
          "MT",
          "MX",
          "NL",
          "NZ",
          "NI",
          "NO",
          "PA",
          "PY",
          "PE",
          "PH",
          "PL",
          "PT",
          "SG",
          "SK",
          "ES",
          "SE",
          "CH",
          "TW",
          "TR",
          "UY",
          "US",
          "GB",
          "AD",
          "LI",
          "MC",
          "ID",
          "JP",
          "TH",
          "VN",
          "RO",
          "IL",
          "ZA",
          "SA",
          "AE",
          "BH",
          "QA",
          "OM",
          "KW",
          "EG",
          "MA",
          "DZ",
          "TN",
          "LB",
          "JO",
          "PS",
          "IN",
          "KZ",
          "MD",
          "UA",
          "AL",
          "BA",
          "HR",
          "ME",
          "MK",
          "SI",
          "KR",
          "BD",
          "PK",
          "LK",
          "GH",
          "KE",
          "NG",
          "TZ",
          "UG",
          "AG",
          "AM",
          "BS",
          "BB",
          "BZ",
          "BT",
          "BW",
          "BF",
          "CV",
          "CW",
          "DM",
          "FJ",
          "GM",
          "GE",
          "GD",
          "GW",
          "GY",
          "HT",
          "JM",
          "KI",
          "LS",
          "LR",
          "MW",
          "MV",
          "ML",
          "MH",
          "FM",
          "NA",
          "NR",
          "NE",
          "PW",
          "PG",
          "WS",
          "SM",
          "ST",
          "SN",
          "SC",
          "SL",
          "SB",
          "KN",
          "LC",
          "VC",
          "SR",
          "TL",
          "TO",
          "TT",
          "TV",
          "VU",
          "AZ",
          "BN",
          "KH",
          "CM",
          "TD",
          "KM",
          "GQ",
          "SZ",
          "GA",
          "GN",
          "KG",
          "LA",
          "MO",
          "MR",
          "MN",
          "NP",
          "RW",
          "TG",
          "UZ",
          "BJ",
          "MG",
          "MU",
          "MZ",
          "AO",
          "DJ",
          "ZM",
          "CG",
          "TJ",
          "VE",
          "ET"
        ],
        "disc_number": 1,
        "duration_ms": 234813,
        "explicit": false,
        "external_ids": {
          "isrc": "QMAHL1900010"
        },
        "external_urls": {
          "spotify": "https://open.spotify.com/track/4Vnbh54MMkRf2uZXcON3Av"
        },
        "href": "https://api.spotify.com/v1/tracks/4Vnbh54MMkRf2uZXcON3Av",
        "id": "4Vnbh54MMkRf2uZXcON3Av",
        "is_local": false,
        "name": "A Mother Like You",
        "popularity": 44,
        "preview_url": "https://p.scdn.co/mp3-preview/2098c4c9167a0ef47fb07ee67412591c69aea8f9?cid=8199ced0f4aa4ceba1efbcedd7b6878a",
        "track_number": 1,
        "type": "track",
        "uri": "spotify:track:4Vnbh54MMkRf2uZXcON3Av"
      }
    ],
    "limit": 2,
    "next": "https://api.spotify.com/v1/search?query=track%3A+I+Will+Wait&type=track&locale=en-US%2Cen%3Bq%3D0.9&offset=2&limit=2",
    "offset": 0,
    "previous": null,
    "total": 1000
  }
}