{
  "tracks": {
    "href": "https://api.spotify.com/v1/search?query=track%3A+MONACO&type=track&locale=en-US%2Cen%3Bq%3D0.9&offset=0&limit=1",
    "items": [
      {
        "album": {
          "album_type": "album",
          "artists": [
            {
              "external_urls": {
                "spotify": "https://open.spotify.com/artist/4q3ewBCX7sLwd24euuV69X"
              },
              "href": "https://api.spotify.com/v1/artists/4q3ewBCX7sLwd24euuV69X",
              "id": "4q3ewBCX7sLwd24euuV69X",
              "name": "Bad Bunny",
              "type": "artist",
              "uri": "spotify:artist:4q3ewBCX7sLwd24euuV69X"
            }
          ],
          "available_markets": [
            "AR",
            "AU",
            "AT",
            "BE",
            "BO",
            "BR",
            "BG",
            "CA",
            "CL",
            "CO",
            "CR",
            "CY",
            "CZ",
            "DK",
            "DO",
            "DE",
            "EC",
            "EE",
            "SV",
            "FI",
            "FR",
            "GR",
            "GT",
            "HN",
            "HK",
            "HU",
            "IS",
            "IE",
            "IT",
            "LV",
            "LT",
            "LU",
            "MY",
            "MT",
            "MX",
            "NL",
            "NZ",
            "NI",
            "NO",
            "PA",
            "PY",
            "PE",
            "PH",
            "PL",
            "PT",
            "SG",
            "SK",
            "ES",
            "SE",
            "CH",
            "TW",
            "TR",
            "UY",
            "US",
            "GB",
            "AD",
            "LI",
            "MC",
            "ID",
            "JP",
            "TH",
            "VN",
            "RO",
            "IL",
            "ZA",
            "SA",
            "AE",
            "BH",
            "QA",
            "OM",
            "KW",
            "EG",
            "MA",
            "DZ",
            "TN",
            "LB",
            "JO",
            "PS",
            "IN",
            "BY",
            "KZ",
            "MD",
            "UA",
            "AL",
            "BA",
            "HR",
            "ME",
            "MK",
            "RS",
            "SI",
            "KR",
            "BD",
            "PK",
            "LK",
            "GH",
            "KE",
            "NG",
            "TZ",
            "UG",
            "AG",
            "AM",
            "BS",
            "BB",
            "BZ",
            "BT",
            "BW",
            "BF",
            "CV",
            "CW",
            "DM",
            "FJ",
            "GM",
            "GE",
            "GD",
            "GW",
            "GY",
            "HT",
            "JM",
            "KI",
            "LS",
            "LR",
            "MW",
            "MV",
            "ML",
            "MH",
            "FM",
            "NA",
            "NR",
            "NE",
            "PW",
            "PG",
            "WS",
            "SM",
            "ST",
            "SN",
            "SC",
            "SL",
            "SB",
            "KN",
            "LC",
            "VC",
            "SR",
            "TL",
            "TO",
            "TT",
            "TV",
            "VU",
            "AZ",
            "BN",
            "BI",
            "KH",
            "CM",
            "TD",
            "KM",
            "GQ",
            "SZ",
            "GA",
            "GN",
            "KG",
            "LA",
            "MO",
            "MR",
            "MN",
            "NP",
            "RW",
            "TG",
            "UZ",
            "ZW",
            "BJ",
            "MG",
            "MU",
            "MZ",
            "AO",
            "CI",
            "DJ",
            "ZM",
            "CD",
            "CG",
            "IQ",
            "LY",
            "TJ",
            "VE",
            "ET",
            "XK"
          ],
          "external_urls": {
            "spotify": "https://open.spotify.com/album/4FftCsAcXXD1nFO9RFUNFO"
          },
          "href": "https://api.spotify.com/v1/albums/4FftCsAcXXD1nFO9RFUNFO",
          "id": "4FftCsAcXXD1nFO9RFUNFO",
          "images": [
            {
              "height": 640,
              "url": "https://i.scdn.co/image/ab67616d0000b2737b1fc51ff3257b5286a1ecec",
              "width": 640
            },
            {
              "height": 300,
              "url": "https://i.scdn.co/image/ab67616d00001e027b1fc51ff3257b5286a1ecec",
              "width": 300
            },
            {
              "height": 64,
              "url": "https://i.scdn.co/image/ab67616d000048517b1fc51ff3257b5286a1ecec",
              "width": 64
            }
          ],
          "name": "nadie sabe lo que va a pasar mañana",
          "release_date": "2023-10-13",
          "release_date_precision": "day",
          "total_tracks": 22,
          "type": "album",
          "uri": "spotify:album:4FftCsAcXXD1nFO9RFUNFO"
        },
        "artists": [
          {
            "external_urls": {
              "spotify": "https://open.spotify.com/artist/4q3ewBCX7sLwd24euuV69X"
            },
            "href": "https://api.spotify.com/v1/artists/4q3ewBCX7sLwd24euuV69X",
            "id": "4q3ewBCX7sLwd24euuV69X",
            "name": "Bad Bunny",
            "type": "artist",
            "uri": "spotify:artist:4q3ewBCX7sLwd24euuV69X"
          }
        ],
        "available_markets": [
          "AR",
          "AU",
          "AT",
          "BE",
          "BO",
          "BR",
          "BG",
          "CA",
          "CL",
          "CO",
          "CR",
          "CY",
          "CZ",
          "DK",
          "DO",
          "DE",
          "EC",
          "EE",
          "SV",
          "FI",
          "FR",
          "GR",
          "GT",
          "HN",
          "HK",
          "HU",
          "IS",
          "IE",
          "IT",
          "LV",
          "LT",
          "LU",
          "MY",
          "MT",
          "MX",
          "NL",
          "NZ",
          "NI",
          "NO",
          "PA",
          "PY",
          "PE",
          "PH",
          "PL",
          "PT",
          "SG",
          "SK",
          "ES",
          "SE",
          "CH",
          "TW",
          "TR",
          "UY",
          "US",
          "GB",
          "AD",
          "LI",
          "MC",
          "ID",
          "JP",
          "TH",
          "VN",
          "RO",
          "IL",
          "ZA",
          "SA",
          "AE",
          "BH",
          "QA",
          "OM",
          "KW",
          "EG",
          "MA",
          "DZ",
          "TN",
          "LB",
          "JO",
          "PS",
          "IN",
          "BY",
          "KZ",
          "MD",
          "UA",
          "AL",
          "BA",
          "HR",
          "ME",
          "MK",
          "RS",
          "SI",
          "KR",
          "BD",
          "PK",
          "LK",
          "GH",
          "KE",
          "NG",
          "TZ",
          "UG",
          "AG",
          "AM",
          "BS",
          "BB",
          "BZ",
          "BT",
          "BW",
          "BF",
          "CV",
          "CW",
          "DM",
          "FJ",
          "GM",
          "GE",
          "GD",
          "GW",
          "GY",
          "HT",
          "JM",
          "KI",
          "LS",
          "LR",
          "MW",
          "MV",
          "ML",
          "MH",
          "FM",
          "NA",
          "NR",
          "NE",
          "PW",
          "PG",
          "WS",
          "SM",
          "ST",
          "SN",
          "SC",
          "SL",
          "SB",
          "KN",
          "LC",
          "VC",
          "SR",
          "TL",
          "TO",
          "TT",
          "TV",
          "VU",
          "AZ",
          "BN",
          "BI",
          "KH",
          "CM",
          "TD",
          "KM",
          "GQ",
          "SZ",
          "GA",
          "GN",
          "KG",
          "LA",
          "MO",
          "MR",
          "MN",
          "NP",
          "RW",
          "TG",
          "UZ",
          "ZW",
          "BJ",
          "MG",
          "MU",
          "MZ",
          "AO",
          "CI",
          "DJ",
          "ZM",
          "CD",
          "CG",
          "IQ",
          "LY",
          "TJ",
          "VE",
          "ET",
          "XK"
        ],
        "disc_number": 1,
        "duration_ms": 267194,
        "explicit": true,
        "external_ids": {
          "isrc": "QMFME2364182"
        },
        "external_urls": {
          "spotify": "https://open.spotify.com/track/4MjDJD8cW7iVeWInc2Bdyj"
        },
        "href": "https://api.spotify.com/v1/tracks/4MjDJD8cW7iVeWInc2Bdyj",
        "id": "4MjDJD8cW7iVeWInc2Bdyj",
        "is_local": false,
        "name": "MONACO",
        "popularity": 97,
        "preview_url": "https://p.scdn.co/mp3-preview/f80c7cc394457fc77cd6668a715b039fd86404f9?cid=8199ced0f4aa4ceba1efbcedd7b6878a",
        "track_number": 2,
        "type": "track",
        "uri": "spotify:track:4MjDJD8cW7iVeWInc2Bdyj"
      }
    ],
    "limit": 1,
    "next": "https://api.spotify.com/v1/search?query=track%3A+MONACO&type=track&locale=en-US%2Cen%3Bq%3D0.9&offset=1&limit=1",
    "offset": 0,
    "previous": null,
    "total": 1000
  }
}