{
  "tracks": {
    "href": "https://api.spotify.com/v1/search?query=track%3A+vampire&type=track&market=US&locale=en-US%2Cen%3Bq%3D0.9&offset=0&limit=5",
    "items": [
      {
        "album": {
          "album_type": "album",
          "artists": [
            {
              "external_urls": {
                "spotify": "https://open.spotify.com/artist/6USv9qhCn6zfxlBQIYJ9qs"
              },
              "href": "https://api.spotify.com/v1/artists/6USv9qhCn6zfxlBQIYJ9qs",
              "id": "6USv9qhCn6zfxlBQIYJ9qs",
              "name": "Dominic Fike",
              "type": "artist",
              "uri": "spotify:artist:6USv9qhCn6zfxlBQIYJ9qs"
            }
          ],
          "external_urls": {
            "spotify": "https://open.spotify.com/album/1BubKJqf6Uc4fNae5kLJJ7"
          },
          "href": "https://api.spotify.com/v1/albums/1BubKJqf6Uc4fNae5kLJJ7",
          "id": "1BubKJqf6Uc4fNae5kLJJ7",
          "images": [
            {
              "height": 640,
              "url": "https://i.scdn.co/image/ab67616d0000b273cfc824b65a3b1755d98a7e23",
              "width": 640
            },
            {
              "height": 300,
              "url": "https://i.scdn.co/image/ab67616d00001e02cfc824b65a3b1755d98a7e23",
              "width": 300
            },
            {
              "height": 64,
              "url": "https://i.scdn.co/image/ab67616d00004851cfc824b65a3b1755d98a7e23",
              "width": 64
            }
          ],
          "is_playable": true,
          "name": "What Could Possibly Go Wrong",
          "release_date": "2020-07-31",
          "release_date_precision": "day",
          "total_tracks": 14,
          "type": "album",
          "uri": "spotify:album:1BubKJqf6Uc4fNae5kLJJ7"
        },
        "artists": [
          {
            "external_urls": {
              "spotify": "https://open.spotify.com/artist/6USv9qhCn6zfxlBQIYJ9qs"
            },
            "href": "https://api.spotify.com/v1/artists/6USv9qhCn6zfxlBQIYJ9qs",
            "id": "6USv9qhCn6zfxlBQIYJ9qs",
            "name": "Dominic Fike",
            "type": "artist",
            "uri": "spotify:artist:6USv9qhCn6zfxlBQIYJ9qs"
          }
        ],
        "disc_number": 1,
        "duration_ms": 186050,
        "explicit": false,
        "external_ids": {
          "isrc": "USQX92003250"
        },
        "external_urls": {
          "spotify": "https://open.spotify.com/track/0SRPuTnr5QOKRoIxMvvlgK"
        },
        "href": "https://api.spotify.com/v1/tracks/0SRPuTnr5QOKRoIxMvvlgK",
        "id": "0SRPuTnr5QOKRoIxMvvlgK",
        "is_local": false,
        "is_playable": true,
        "name": "Vampire",
        "popularity": 63,
        "preview_url": "https://p.scdn.co/mp3-preview/f085e7d1697390229ae13fd0d7e9208df3ea514f?cid=8199ced0f4aa4ceba1efbcedd7b6878a",
        "track_number": 9,
        "type": "track",
        "uri": "spotify:track:0SRPuTnr5QOKRoIxMvvlgK"
      },
      {
        "album": {
          "album_type": "album",
          "artists": [
            {
              "external_urls": {
                "spotify": "https://open.spotify.com/artist/5BvJzeQpmsdsFp4HGUYUEx"
              },
              "href": "https://api.spotify.com/v1/artists/5BvJzeQpmsdsFp4HGUYUEx",
              "id": "5BvJzeQpmsdsFp4HGUYUEx",
              "name": "Vampire Weekend",
              "type": "artist",
              "uri": "spotify:artist:5BvJzeQpmsdsFp4HGUYUEx"
            }
          ],
          "external_urls": {
            "spotify": "https://open.spotify.com/album/5WWu3iYAXLgqghjU9696Nk"
          },
          "href": "https://api.spotify.com/v1/albums/5WWu3iYAXLgqghjU9696Nk",
          "id": "5WWu3iYAXLgqghjU9696Nk",
          "images": [
            {
              "height": 640,
              "url": "https://i.scdn.co/image/ab67616d0000b27360124a534f8f257e7c158613",
              "width": 640
            },
            {
              "height": 300,
              "url": "https://i.scdn.co/image/ab67616d00001e0260124a534f8f257e7c158613",
              "width": 300
            },
            {
              "height": 64,
              "url": "https://i.scdn.co/image/ab67616d0000485160124a534f8f257e7c158613",
              "width": 64
            }
          ],
          "is_playable": true,
          "name": "Father of the Bride (Deluxe)",
          "release_date": "2019-05-03",
          "release_date_precision": "day",
          "total_tracks": 21,
          "type": "album",
          "uri": "spotify:album:5WWu3iYAXLgqghjU9696Nk"
        },
        "artists": [
          {
            "external_urls": {
              "spotify": "https://open.spotify.com/artist/5BvJzeQpmsdsFp4HGUYUEx"
            },
            "href": "https://api.spotify.com/v1/artists/5BvJzeQpmsdsFp4HGUYUEx",
            "id": "5BvJzeQpmsdsFp4HGUYUEx",
            "name": "Vampire Weekend",
            "type": "artist",
            "uri": "spotify:artist:5BvJzeQpmsdsFp4HGUYUEx"
          }
        ],
        "disc_number": 2,
        "duration_ms": 139280,
        "explicit": false,
        "external_ids": {
          "isrc": "USSM11902649"
        },
        "external_urls": {
          "spotify": "https://open.spotify.com/track/12Fpw64lbhzYT5pRSleG4V"
        },
        "href": "https://api.spotify.com/v1/tracks/12Fpw64lbhzYT5pRSleG4V",
        "id": "12Fpw64lbhzYT5pRSleG4V",
        "is_local": false,
        "is_playable": true,
        "name": "Houston Dubai (Japanese Bonus Track)",
        "popularity": 36,
        "preview_url": "https://p.scdn.co/mp3-preview/5716e3e8df65cd2080cc060c41a3dce374a165a8?cid=8199ced0f4aa4ceba1efbcedd7b6878a",
        "track_number": 1,
        "type": "track",
        "uri": "spotify:track:12Fpw64lbhzYT5pRSleG4V"
      },
      {
        "album": {
          "album_type": "album",
          "artists": [
            {
              "external_urls": {
                "spotify": "https://open.spotify.com/artist/1McMsnEElThX1knmY4oliG"
              },
              "href": "https://api.spotify.com/v1/artists/1McMsnEElThX1knmY4oliG",
              "id": "1McMsnEElThX1knmY4oliG",
              "name": "Olivia Rodrigo",
              "type": "artist",
              "uri": "spotify:artist:1McMsnEElThX1knmY4oliG"
            }
          ],
          "external_urls": {
            "spotify": "https://open.spotify.com/album/1xJHno7SmdVtZAtXbdbDZp"
          },
          "href": "https://api.spotify.com/v1/albums/1xJHno7SmdVtZAtXbdbDZp",
          "id": "1xJHno7SmdVtZAtXbdbDZp",
          "images": [
            {
              "height": 640,
              "url": "https://i.scdn.co/image/ab67616d0000b273e85259a1cae29a8d91f2093d",
              "width": 640
            },
            {
              "height": 300,
              "url": "https://i.scdn.co/image/ab67616d00001e02e85259a1cae29a8d91f2093d",
              "width": 300
            },
            {
              "height": 64,
              "url": "https://i.scdn.co/image/ab67616d00004851e85259a1cae29a8d91f2093d",
              "width": 64
            }
          ],
          "is_playable": true,
          "name": "GUTS",
          "release_date": "2023-09-08",
          "release_date_precision": "day",
          "total_tracks": 12,
          "type": "album",
          "uri": "spotify:album:1xJHno7SmdVtZAtXbdbDZp"
        },
        "artists": [
          {
            "external_urls": {
              "spotify": "https://open.spotify.com/artist/1McMsnEElThX1knmY4oliG"
            },
            "href": "https://api.spotify.com/v1/artists/1McMsnEElThX1knmY4oliG",
            "id": "1McMsnEElThX1knmY4oliG",
            "name": "Olivia Rodrigo",
            "type": "artist",
            "uri": "spotify:artist:1McMsnEElThX1knmY4oliG"
          }
        ],
        "disc_number": 1,
        "duration_ms": 199422,
        "explicit": true,
        "external_ids": {
          "isrc": "USUG12305002"
        },
        "external_urls": {
          "spotify": "https://open.spotify.com/track/6W9l02gRsXVxzIuQC1oc1X"
        },
        "href": "https://api.spotify.com/v1/tracks/6W9l02gRsXVxzIuQC1oc1X",
        "id": "6W9l02gRsXVxzIuQC1oc1X",
        "is_local": false,
        "is_playable": true,
        "name": "pretty isn’t pretty",
        "popularity": 81,
        "preview_url": null,
        "track_number": 11,
        "type": "track",
        "uri": "spotify:track:6W9l02gRsXVxzIuQC1oc1X"
      },
      {
        "album": {
          "album_type": "compilation",
          "artists": [
            {
              "external_urls": {
                "spotify": "https://open.spotify.com/artist/0LyfQWJT6nXafLPZqxe9Of"
              },
              "href": "https://api.spotify.com/v1/artists/0LyfQWJT6nXafLPZqxe9Of",
              "id": "0LyfQWJT6nXafLPZqxe9Of",
              "name": "Various Artists",
              "type": "artist",
              "uri": "spotify:artist:0LyfQWJT6nXafLPZqxe9Of"
            }
          ],
          "external_urls": {
            "spotify": "https://open.spotify.com/album/2445s9JDTLq5vOBj3P84Te"
          },
          "href": "https://api.spotify.com/v1/albums/2445s9JDTLq5vOBj3P84Te",
          "id": "2445s9JDTLq5vOBj3P84Te",
          "images": [
            {
              "height": 640,
              "url": "https://i.scdn.co/image/ab67616d0000b273002a3456fde7a962ef39cc81",
              "width": 640
            },
            {
              "height": 300,
              "url": "https://i.scdn.co/image/ab67616d00001e02002a3456fde7a962ef39cc81",
              "width": 300
            },
            {
              "height": 64,
              "url": "https://i.scdn.co/image/ab67616d00004851002a3456fde7a962ef39cc81",
              "width": 64
            }
          ],
          "is_playable": true,
          "name": "New Dark Genesis (25 Twisted Anime Tracks)",
          "release_date": "2014-09-10",
          "release_date_precision": "day",
          "total_tracks": 25,
          "type": "album",
          "uri": "spotify:album:2445s9JDTLq5vOBj3P84Te"
        },
        "artists": [
          {
            "external_urls": {
              "spotify": "https://open.spotify.com/artist/4HG25gcGxUsLKlhPKyCods"
            },
            "href": "https://api.spotify.com/v1/artists/4HG25gcGxUsLKlhPKyCods",
            "id": "4HG25gcGxUsLKlhPKyCods",
            "name": "Harajuku Nation",
            "type": "artist",
            "uri": "spotify:artist:4HG25gcGxUsLKlhPKyCods"
          }
        ],
        "disc_number": 1,
        "duration_ms": 88026,
        "explicit": false,
        "external_ids": {
          "isrc": "GBW2K1109536"
        },
        "external_urls": {
          "spotify": "https://open.spotify.com/track/4UheW8jAKhKLhpcWSfGg98"
        },
        "href": "https://api.spotify.com/v1/tracks/4UheW8jAKhKLhpcWSfGg98",
        "id": "4UheW8jAKhKLhpcWSfGg98",
        "is_local": false,
        "is_playable": true,
        "name": "Still Doll (From 'Vampire Knight')",
        "popularity": 21,
        "preview_url": "https://p.scdn.co/mp3-preview/a8756d2235b551f5cc02c791e9df0d14d8a4b24e?cid=8199ced0f4aa4ceba1efbcedd7b6878a",
        "track_number": 24,
        "type": "track",
        "uri": "spotify:track:4UheW8jAKhKLhpcWSfGg98"
      },
      {
        "album": {
          "album_type": "single",
          "artists": [
            {
              "external_urls": {
                "spotify": "https://open.spotify.com/artist/3zGVpuCFR55VnFh5dKgjRk"
              },
              "href": "https://api.spotify.com/v1/artists/3zGVpuCFR55VnFh5dKgjRk",
              "id": "3zGVpuCFR55VnFh5dKgjRk",
              "name": "ked",
              "type": "artist",
              "uri": "spotify:artist:3zGVpuCFR55VnFh5dKgjRk"
            }
          ],
          "external_urls": {
            "spotify": "https://open.spotify.com/album/30wBT9YA4RJkv7DLRrepEK"
          },
          "href": "https://api.spotify.com/v1/albums/30wBT9YA4RJkv7DLRrepEK",
          "id": "30wBT9YA4RJkv7DLRrepEK",
          "images": [
            {
              "height": 640,
              "url": "https://i.scdn.co/image/ab67616d0000b273f90d1d9b71731b51adcb7a31",
              "width": 640
            },
            {
              "height": 300,
              "url": "https://i.scdn.co/image/ab67616d00001e02f90d1d9b71731b51adcb7a31",
              "width": 300
            },
            {
              "height": 64,
              "url": "https://i.scdn.co/image/ab67616d00004851f90d1d9b71731b51adcb7a31",
              "width": 64
            }
          ],
          "is_playable": true,
          "name": "bullshit",
          "release_date": "2023-08-05",
          "release_date_precision": "day",
          "total_tracks": 1,
          "type": "album",
          "uri": "spotify:album:30wBT9YA4RJkv7DLRrepEK"
        },
        "artists": [
          {
            "external_urls": {
              "spotify": "https://open.spotify.com/artist/3zGVpuCFR55VnFh5dKgjRk"
            },
            "href": "https://api.spotify.com/v1/artists/3zGVpuCFR55VnFh5dKgjRk",
            "id": "3zGVpuCFR55VnFh5dKgjRk",
            "name": "ked",
            "type": "artist",
            "uri": "spotify:artist:3zGVpuCFR55VnFh5dKgjRk"
          }
        ],
        "disc_number": 1,
        "duration_ms": 213000,
        "explicit": true,
        "external_ids": {
          "isrc": "QZNWU2361878"
        },
        "external_urls": {
          "spotify": "https://open.spotify.com/track/2a4XGNnvY2YotgZuIQbDUC"
        },
        "href": "https://api.spotify.com/v1/tracks/2a4XGNnvY2YotgZuIQbDUC",
        "id": "2a4XGNnvY2YotgZuIQbDUC",
        "is_local": false,
        "is_playable": true,
        "name": "bullshit",
        "popularity": 15,
        "preview_url": "https://p.scdn.co/mp3-preview/cb96d31c6ca9015a7488708c89845f55de336915?cid=8199ced0f4aa4ceba1efbcedd7b6878a",
        "track_number": 1,
        "type": "track",
        "uri": "spotify:track:2a4XGNnvY2YotgZuIQbDUC"
      }
    ],
    "limit": 5,
    "next": "https://api.spotify.com/v1/search?query=track%3A+vampire&type=track&market=US&locale=en-US%2Cen%3Bq%3D0.9&offset=5&limit=5",
    "offset": 0,
    "previous": null,
    "total": 1000
  }
}